Getting Started With stacks • stacks
…
tree_frogs_data_st
#> # A data stack with 3 model definitions and 11 candidate members:
#> #   knn_res: 4 model configurations
#> #   lin_reg_res: 1 model configuration
#> #   svm_res: 6 model configurations
#> # Outcome: latency (numeric)

As mentioned before, under the hood, a data_stack object is really just a tibble with some extra attributes. Checking out the actual data:

as_tibble(tree_frogs_data_st)
#> # A tibble: 429 x 12
#>    latency knn_res_1_1 knn_res_1_2 knn_res_1_3 knn_res_1_4 lin_reg_res_1_1
#>      <dbl>       <dbl>       <dbl>       <dbl>       <dbl>           <dbl>
#>  1     360      -0.343      -0.395      -0.469      -0.478           194. 
#>  2     106      -0.336      -0.390      -0.438      -0.444           123. 
#>  3     180      -0.343      -0.395      -0.469      -0.478           138. 
#>  4      60      -0.350      -0.363      -0.401      -0.407           122. 
#>  5      39      -0.251      -0.310      -0.427      -0.441            82.9
#>  6     214      -0.420      -0.436      -0.505      -0.515           134. 
#>  7      50      -0.336      -0.390      -0.438      -0.444            37.2
#>  8     224      -0.336      -0.390      -0.438      -0.444           125. 
#>  9      63      -0.420      -0.436      -0.505      -0.515            40.3
#> 10      33      -0.336      -0.390      -0.438      -0.444            38.3
#> # … with 419 more rows, and 6 more variables: svm_res_1_5 <dbl>,
#> #   svm_res_1_6 <dbl>, svm_res_1_1 <dbl>, svm_res_1_4 <dbl>, svm_res_1_3 <dbl>,
#> #   svm_res_1_2 <dbl>
…
