Augment data with information from a model_stack object — augment.model_stack • stacks
…
#> # A tibble: 1 x 12
#>   r.squared adj.r.squared sigma statistic p.value    df logLik   AIC   BIC
#>       <dbl>         <dbl> <dbl>     <dbl>   <dbl> <int>  <dbl> <dbl> <dbl>
#> 1        NA            NA    NA        NA      NA    NA     NA    NA    NA
#> # … with 3 more variables: deviance <dbl>, df.residual <int>, nobs <int>
augment(st)

#> # A tibble: 429 x 6
#>    treatment  reflex    age t_o_d     latency .fitted$.pred
#>    <chr>      <fct>   <dbl> <chr>       <dbl>         <dbl>
#>  1 control    low    361180 night         360         194. 
#>  2 control    full   401595 afternoon     106         114. 
#>  3 control    mid    357810 night         180         123. 
#>  4 control    full   397440 afternoon      60         112. 
#>  5 gentamicin full   463230 morning        39          84.7
#>  6 control    full   393900 afternoon     214         120. 
#>  7 control    full   469065 morning        50          35.8
#>  8 control    full   400240 afternoon     224         111. 
#>  9 control    full   466160 morning        63          38.2
#> 10 control    full   467950 morning        33          39.4
#> # … with 419 more rows
…
