Model predictions — predict.model_stack • stacks
…
#> ── A stacked ensemble model ─────────────────────────────────────
#> Out of 11 possible candidates, the ensemble contains 3 members.
#> The highest weighted members are:
#> # A tibble: 3 x 3
#>   member       type       weight
#>   <chr>        <chr>       <dbl>
#> 1 reg_res_sp10 linear_reg  0.379
#> 2 reg_res_lr1  linear_reg  0.335
#> 3 reg_res_sp06 linear_reg  0.209

# predict on the tree frogs testing data
predict(reg_st, tree_frogs_reg_test)

#> # A tibble: 143 x 1
#>    .pred
#>    <dbl>
#>  1  40.0
#>  2 115. 
#>  3  88.9
#>  4  34.3
#>  5  76.5
#>  6  88.2
#>  7 123. 
#>  8  80.7
#>  9  37.1
#> 10  77.2
#> # … with 133 more rows

# include the predictions from the members
predict(reg_st, tree_frogs_reg_test, members = TRUE)

#> # A tibble: 143 x 4
#>    .pred reg_res_lr1 reg_res_sp10 reg_res_sp06
#>    <dbl>       <dbl>        <dbl>        <dbl>
#>  1  40.0        38.0         34.3         37.5
#>  2 115.        124.         117.         111. 
#>  3  88.9        84.5         92.4         92.0
#>  4  34.3        35.3         28.0         25.5
#>  5  76.5        79.0         77.0         69.4
#>  6  88.2        83.7         92.2         89.9
#>  7 123.        118.         139.         116. 
#>  8  80.7        80.0         79.2         83.8
#>  9  37.1        36.5         30.7         32.6
#> 10  77.2        79.4         78.0         70.1
#> # … with 133 more rows
…
# predict reflex, first as a class, then as
# class probabilities
predict(class_st, tree_frogs_class_test)

#> # A tibble: 303 x 1
#>    .pred_class
#>    <fct>      
#>  1 low        
#>  2 mid        
#>  3 low        
#>  4 mid        
#>  5 low        
#>  6 low        
#>  7 mid        
#>  8 full       
#>  9 full       
#> 10 low        
#> # … with 293 more rows
predict(class_st, tree_frogs_class_test, type = "prob")

#> # A tibble: 303 x 3
#>    .pred_full   .pred_low .pred_mid
#>         <dbl>       <dbl>     <dbl>
#>  1   1.00e+ 0 0.0000608   0.000138 
#>  2   9.18e- 9 0.759       0.241    
#>  3   1.00e+ 0 0.00000243  0.0000429
#>  4   3.20e- 5 0.961       0.0386   
#>  5   1.00e+ 0 0.000000696 0.0000450
#>  6   1.00e+ 0 0.000000697 0.0000451
#>  7   5.09e-10 0.891       0.109    
#>  8   4.57e-13 0.308       0.692    
#>  9   9.49e-21 0.321       0.679    
#> 10   1.00e+ 0 0.000000778 0.0000603
#> # … with 293 more rows

# returning the member predictions as well
predict(
  class_st, 
  tree_frogs_class_test, 
  type = "prob", 
  members = TRUE
)

#> # A tibble: 303 x 36
#>    .pred_full .pred_low .pred_mid .pred_low_class… .pred_low_class…
#>         <dbl>     <dbl>     <dbl>            <dbl>            <dbl>
#>  1   1.00e+ 0   6.08e-5 0.000138             0.212           0.209 
#>  2   9.18e- 9   7.59e-1 0.241                0.415           0.515 
#>  3   1.00e+ 0   2.43e-6 0.0000429            0.212           0.0862
#>  4   3.20e- 5   9.61e-1 0.0386               0.458           0.562 
#>  5   1.00e+ 0   6.96e-7 0.0000450            0.212           0.0405
#>  6   1.00e+ 0   6.97e-7 0.0000451            0.212           0.0405
#>  7   5.09e-10   8.91e-1 0.109                0.409           0.500 
#>  8   4.57e-13   3.08e-1 0.692                0.416           0.510 
#>  9   9.49e-21   3.21e-1 0.679                0.276           0.277 
#> 10   1.00e+ 0   7.78e-7 0.0000603            0.212           0.0250
#> # … with 293 more rows, and 31 more variables: .pred_low_class_res_rf08 <dbl>,
#> #   .pred_low_class_res_rf05 <dbl>, .pred_low_class_res_rf07 <dbl>,
#> #   .pred_low_class_res_rf04 <dbl>, .pred_low_class_res_rf10 <dbl>,
#> #   .pred_low_class_res_rf03 <dbl>, .pred_low_class_res_rf02 <dbl>,
#> #   .pred_low_class_res_rf01 <dbl>, .pred_low_class_res_rf06 <dbl>,
#> #   .pred_mid_class_res_nn1 <dbl>, .pred_mid_class_res_rf09 <dbl>,
#> #   .pred_mid_class_res_rf08 <dbl>, .pred_mid_class_res_rf05 <dbl>,
#> #   .pred_mid_class_res_rf07 <dbl>, .pred_mid_class_res_rf04 <dbl>,
#> #   .pred_mid_class_res_rf10 <dbl>, .pred_mid_class_res_rf03 <dbl>,
…
