Predicting with a model stack — predict.model_stack • stacks
…
# predict on the tree frogs testing data
predict(reg_st, tree_frogs_reg_test)
#> # A tibble: 143 × 1
#>    .pred
#>    <dbl>
#>  1  40.4
#>  2 111. 
#>  3  90.6
#>  4  33.8
#>  5  75.3
#>  6  90.0
#>  7 122. 
#>  8  82.4
#>  9  37.6
#> 10  77.3
#> # … with 133 more rows

# include the predictions from the members
predict(reg_st, tree_frogs_reg_test, members = TRUE)
#> # A tibble: 143 × 4
#>    .pred reg_res_lr_1_1 reg_res_sp_8_1 reg_res_sp_2_1
#>    <dbl>          <dbl>          <dbl>          <dbl>
#>  1  40.4           38.0           34.3           36.9
#>  2 111.           124.           117.            98.6
#>  3  90.6           84.5           92.4           98.2
#>  4  33.8           35.3           28.0           23.8
#>  5  75.3           79.0           77.0           67.6
#>  6  90.0           83.7           92.2           97.3
#>  7 122.           118.           139.           123. 
#>  8  82.4           80.0           79.2           88.0
#>  9  37.6           36.5           30.7           32.7
#> 10  77.3           79.4           78.0           72.8
#> # … with 133 more rows
…
# predict reflex, first as a class, then as
# class probabilities
predict(class_st, tree_frogs_class_test)
#> # A tibble: 303 × 1
#>    .pred_class
#>    <fct>      
#>  1 low        
#>  2 full       
#>  3 mid        
#>  4 mid        
#>  5 low        
#>  6 full       
#>  7 full       
#>  8 full       
#>  9 mid        
#> 10 low        
#> # … with 293 more rows
predict(class_st, tree_frogs_class_test, type = "prob")
#> # A tibble: 303 × 3
#>    .pred_full  .pred_low .pred_mid
#>         <dbl>      <dbl>     <dbl>
#>  1   1.00e+ 0 0.00000739 0.0000737
#>  2   5.32e-11 0.272      0.728    
#>  3   7.83e- 6 0.721      0.279    
#>  4   2.02e- 7 0.748      0.252    
#>  5   1.00e+ 0 0.00000739 0.0000737
#>  6   1.09e-16 0.187      0.813    
#>  7   1.96e-13 0.415      0.585    
#>  8   2.19e- 9 0.305      0.695    
#>  9   9.51e-11 0.569      0.431    
#> 10   1.00e+ 0 0.00000739 0.0000737
#> # … with 293 more rows

# returning the member predictions as well
predict(
  class_st, 
  tree_frogs_class_test, 
  type = "prob", 
  members = TRUE
)
#> # A tibble: 303 × 36
#>    .pred_full  .pred_low .pred_mid .pred_low_class_res_rf_1_04 .pred_low_class_…
#>         <dbl>      <dbl>     <dbl>                       <dbl>             <dbl>
#>  1   1.00e+ 0 0.00000739 0.0000737                      0.0385           0.00511
#>  2   5.32e-11 0.272      0.728                          0.503            0.544  
#>  3   7.83e- 6 0.721      0.279                          0.547            0.711  
#>  4   2.02e- 7 0.748      0.252                          0.488            0.572  
#>  5   1.00e+ 0 0.00000739 0.0000737                      0.0385           0.00511
#>  6   1.09e-16 0.187      0.813                          0.279            0.270  
#>  7   1.96e-13 0.415      0.585                          0.300            0.339  
#>  8   2.19e- 9 0.305      0.695                          0.512            0.593  
#>  9   9.51e-11 0.569      0.431                          0.346            0.443  
#> 10   1.00e+ 0 0.00000739 0.0000737                      0.0385           0.00511
#> # … with 293 more rows, and 31 more variables:
#> #   .pred_low_class_res_rf_1_03 <dbl>, .pred_low_class_res_rf_1_02 <dbl>,
#> #   .pred_low_class_res_rf_1_08 <dbl>, .pred_low_class_res_rf_1_07 <dbl>,
#> #   .pred_low_class_res_nn_1_1 <dbl>, .pred_low_class_res_rf_1_06 <dbl>,
#> #   .pred_low_class_res_rf_1_09 <dbl>, .pred_low_class_res_rf_1_05 <dbl>,
#> #   .pred_low_class_res_rf_1_01 <dbl>, .pred_mid_class_res_rf_1_04 <dbl>,
#> #   .pred_mid_class_res_rf_1_10 <dbl>, .pred_mid_class_res_rf_1_03 <dbl>, …
…
