Getting Started With stacks • stacks
…
penguins_data_st
#> # A data stack with 3 model definitions and 16 candidate members:
#> #   lin_reg_res: 1 sub-model
#> #   spline_res: 10 sub-models
#> #   svm_res: 5 sub-models
#> # Outcome: body_mass_g (integer)

As mentioned before, under the hood, a data_stack object is really just a tibble. Checking out the actual data:

as_tibble(penguins_data_st)
#> # A tibble: 250 x 17
#>    body_mass_g lin_reg_res1 spline_res10 spline_res04 spline_res09 spline_res02
#>          <int>        <dbl>        <dbl>        <dbl>        <dbl>        <dbl>
#>  1        3750        3695.        3662.        3666.        3689.        3715.
#>  2        3800        3414.        3491.        3555.        3464.        3450.
#>  3        3250        3674.        3696.        3809.        3749.        3832.
#>  4        3450        3663.        3590.        3617.        3591.        3558.
#>  5        3650        4131.        4101.        4069.        4094.        4105.
#>  6        3625        3402.        3524.        3585.        3454.        3469.
#>  7        4675        3982.        3901.        3957.        3960.        3978.
#>  8        3200        3449.        3714.        3628.        3529.        3524.
#>  9        3800        4204.        4157.        4164.        4128.        4184.
#> 10        4400        4042.        3982.        3968.        3993.        4025.
#> # … with 240 more rows, and 11 more variables: spline_res08 <dbl>,
#> #   spline_res06 <dbl>, spline_res01 <dbl>, spline_res03 <dbl>,
#> #   spline_res07 <dbl>, spline_res05 <dbl>, svm_res1 <dbl>, svm_res3 <dbl>,
#> #   svm_res2 <dbl>, svm_res4 <dbl>, svm_res5 <dbl>
…
