Classification Models With stacks • stacks
…
There are multiple facets since the ensemble members can have different effects on different classes.

To identify which model configurations were assigned what stacking coefficients, we can make use of the collect_parameters() function:

collect_parameters(tree_frogs_model_st, "rand_forest_res")
#> # A tibble: 60 x 6
#>    member                mtry min_n class terms                             coef
#>    <chr>                <int> <int> <chr> <chr>                            <dbl>
#>  1 rand_forest_res_1_01     1    26 low   .pred_mid_rand_forest_res_1_01  44.0  
#>  2 rand_forest_res_1_01     1    26 low   .pred_full_rand_forest_res_1_01  0    
#>  3 rand_forest_res_1_01     1    26 mid   .pred_mid_rand_forest_res_1_01   0    
#>  4 rand_forest_res_1_01     1    26 mid   .pred_full_rand_forest_res_1_01  0    
#>  5 rand_forest_res_1_01     1    26 full  .pred_mid_rand_forest_res_1_01   0    
#>  6 rand_forest_res_1_01     1    26 full  .pred_full_rand_forest_res_1_01  0    
#>  7 rand_forest_res_1_02     2    33 low   .pred_mid_rand_forest_res_1_02   0    
#>  8 rand_forest_res_1_02     2    33 low   .pred_full_rand_forest_res_1_02  0    
#>  9 rand_forest_res_1_02     2    33 mid   .pred_mid_rand_forest_res_1_02   6.34 
#> 10 rand_forest_res_1_02     2    33 mid   .pred_full_rand_forest_res_1_02  0.329
#> # … with 50 more rows
…
tree_frogs_pred <-
  tree_frogs_test %>%
  select(reflex) %>%
  bind_cols(
    predict(
      tree_frogs_model_st,
      tree_frogs_test,
      type = "class",
      members = TRUE
      )
    )

tree_frogs_pred
#> # A tibble: 303 x 18
#>    reflex .pred_class .pred_class_rand_f… .pred_class_rand_f… .pred_class_rand_…
#>    <fct>  <fct>       <fct>               <fct>               <fct>             
#>  1 full   low         full                full                full              
#>  2 mid    full        low                 mid                 mid               
#>  3 mid    full        mid                 mid                 mid               
#>  4 mid    full        low                 low                 low               
#>  5 full   low         full                full                full              
#>  6 full   low         full                full                full              
#>  7 full   low         full                full                full              
#>  8 full   low         full                full                full              
#>  9 full   low         full                full                full              
#> 10 full   low         full                full                full              
#> # … with 293 more rows, and 13 more variables:
#> #   .pred_class_rand_forest_res_1_05 <fct>, .pred_class_nnet_res_1_04 <fct>,
#> #   .pred_class_nnet_res_1_08 <fct>, .pred_class_nnet_res_1_03 <fct>,
#> #   .pred_class_nnet_res_1_10 <fct>, .pred_class_nnet_res_1_07 <fct>,
#> #   .pred_class_nnet_res_1_05 <fct>, .pred_class_rand_forest_res_1_10 <fct>,
#> #   .pred_class_rand_forest_res_1_02 <fct>,
#> #   .pred_class_rand_forest_res_1_09 <fct>,
#> #   .pred_class_rand_forest_res_1_06 <fct>,
#> #   .pred_class_rand_forest_res_1_08 <fct>, .pred_class_nnet_res_1_09 <fct>
…
