Predicting with a model stack — predict.model_stack • stacks
…
# predict on the tree frogs testing data
predict(reg_st, tree_frogs_reg_test)

#> # A tibble: 143 x 1
#>    .pred
#>    <dbl>
#>  1 115. 
#>  2  31.7
#>  3  93.7
#>  4 122. 
#>  5 167. 
#>  6  95.2
#>  7 125. 
#>  8 222. 
#>  9 167. 
#> 10 156. 
#> # … with 133 more rows

# include the predictions from the members
predict(reg_st, tree_frogs_reg_test, members = TRUE)

#> # A tibble: 143 x 6
#>    .pred reg_res_lr_1_1 reg_res_sp_8_1 reg_res_sp_9_1 reg_res_sp_4_1
#>    <dbl>          <dbl>          <dbl>          <dbl>          <dbl>
#>  1 115.           117.           101.           116.           118. 
#>  2  31.7           34.2           26.7           27.8           27.5
#>  3  93.7          111.           107.            84.1           83.2
#>  4 122.           106.           112.           135.           132. 
#>  5 167.           147.           161.           185.           178. 
#>  6  95.2           85.7           98.5           98.8          102. 
#>  7 125.           102.           115.           141.           135. 
#>  8 222.           224.           210.           229.           231. 
#>  9 167.           147.           160.           185.           179. 
#> 10 156.           153.           156.           157.           161. 
#> # … with 133 more rows, and 1 more variable: reg_res_sp_2_1 <dbl>
…
# predict reflex, first as a class, then as
# class probabilities
predict(class_st, tree_frogs_class_test)

#> # A tibble: 303 x 1
#>    .pred_class
#>    <fct>      
#>  1 full       
#>  2 low        
#>  3 low        
#>  4 full       
#>  5 low        
#>  6 mid        
#>  7 low        
#>  8 full       
#>  9 full       
#> 10 low        
#> # … with 293 more rows
predict(class_st, tree_frogs_class_test, type = "prob")

#> # A tibble: 303 x 3
#>      .pred_full .pred_low .pred_mid
#>           <dbl>     <dbl>     <dbl>
#>  1 0.000000592   0.269     0.731   
#>  2 0.999         0.000733  0.000223
#>  3 0.999         0.000595  0.000227
#>  4 0.00000156    0.256     0.744   
#>  5 0.999         0.000705  0.000223
#>  6 0.000308      0.863     0.137   
#>  7 0.999         0.000595  0.000227
#>  8 0.0000000651  0.143     0.857   
#>  9 0.00000449    0.343     0.657   
#> 10 0.999         0.000595  0.000227
#> # … with 293 more rows

# returning the member predictions as well
predict(
  class_st, 
  tree_frogs_class_test, 
  type = "prob", 
  members = TRUE
)

#> # A tibble: 303 x 27
#>      .pred_full .pred_low .pred_mid .pred_low_class_res_r… .pred_low_class_res_…
#>           <dbl>     <dbl>     <dbl>                  <dbl>                 <dbl>
#>  1 0.000000592   0.269     0.731                    0.468              0.313    
#>  2 0.999         0.000733  0.000223                 0.102              0.000619 
#>  3 0.999         0.000595  0.000227                 0.0458             0.0000355
#>  4 0.00000156    0.256     0.744                    0.509              0.444    
#>  5 0.999         0.000705  0.000223                 0.109              0        
#>  6 0.000308      0.863     0.137                    0.519              0.603    
#>  7 0.999         0.000595  0.000227                 0.0458             0.0000355
#>  8 0.0000000651  0.143     0.857                    0.283              0.167    
#>  9 0.00000449    0.343     0.657                    0.509              0.486    
#> 10 0.999         0.000595  0.000227                 0.0458             0.0000355
#> # … with 293 more rows, and 22 more variables:
#> #   .pred_low_class_res_rf_1_08 <dbl>, .pred_low_class_res_rf_1_07 <dbl>,
#> #   .pred_low_class_res_nn_1_1 <dbl>, .pred_low_class_res_rf_1_10 <dbl>,
#> #   .pred_low_class_res_rf_1_05 <dbl>, .pred_low_class_res_rf_1_01 <dbl>,
#> #   .pred_mid_class_res_rf_1_04 <dbl>, .pred_mid_class_res_rf_1_02 <dbl>,
#> #   .pred_mid_class_res_rf_1_08 <dbl>, .pred_mid_class_res_rf_1_07 <dbl>,
#> #   .pred_mid_class_res_nn_1_1 <dbl>, .pred_mid_class_res_rf_1_10 <dbl>,
#> #   .pred_mid_class_res_rf_1_05 <dbl>, .pred_mid_class_res_rf_1_01 <dbl>,
#> #   .pred_full_class_res_rf_1_04 <dbl>, .pred_full_class_res_rf_1_02 <dbl>,
…
