Getting Started With stacks • stacks
…
tree_frogs_data_st
#> # A data stack with 3 model definitions and 11 candidate members:
#> #   knn_res: 4 model configurations
#> #   lin_reg_res: 1 model configuration
#> #   svm_res: 6 model configurations
#> # Outcome: latency (numeric)

As mentioned before, under the hood, a data_stack object
is really just a tibble with some extra attributes. Checking out the
actual data:

as_tibble(tree_frogs_data_st)
#> # A tibble: 429 × 12
#>    latency knn_res_1_1 knn_res_1_2 knn_res_1_3 knn_res_1_4 lin_reg_res_1_1
#>      <dbl>       <dbl>       <dbl>       <dbl>       <dbl>           <dbl>
#>  1     142        76.5        67.8        83.2        83.0           114. 
#>  2      79        74.3        71.0        64.2        63.9            78.6
#>  3      50        75.0        71.4        64.9        64.3            81.5
#>  4      68        47.9        49.7        54.0        54.0            78.6
#>  5      64        60.9        53.1        48.4        48.3            36.5
#>  6      52       207.        168.        129.        124.            124. 
#>  7      39        22.6        24.9        31.0        31.5            35.2
#>  8      46        23.2        26.6        33.4        33.9            37.1
#>  9     137        75.9        78.8        90.4        90.6            78.8
#> 10      73        67.7        73.6        67.9        67.4            38.8
#> # ℹ 419 more rows
#> # ℹ 6 more variables: svm_res_1_1 <dbl>, svm_res_1_4 <dbl>,
#> #   svm_res_1_3 <dbl>, svm_res_1_5 <dbl>, svm_res_1_2 <dbl>,
#> #   svm_res_1_6 <dbl>
…
